main_homework
…
Rows: 4266 Columns: 7
── Column specification ────────────────────────────────────────────────────────
Delimiter: ","
chr (7): 剧名, 类型, 播放量, 点赞, 差评, 得分, 采集日期

ℹ Use `spec()` to retrieve the full column specification for this data.
ℹ Specify the column types or set `show_col_types = FALSE` to quiet this message.

2.2 探索性数据分析（EDA）

2.2.1 数据预览

print(data_tv)

# A tibble: 4,266 × 7
   剧名           类型                         播放量 点赞  差评  得分  采集日期
   <chr>          <chr>                        <chr>  <chr> <chr> <chr> <chr>   
 1 花千骨2015     "言情剧\n/\n穿越剧\n/\n网络… 3.07亿 992,… 357,… 7.3   2015-9-…
 2 还珠格格2015   "古装剧\n\n/\n喜剧\n\n/\n网… 73.3万 2,352 7,240 2.5   2015-9-…
 3 天局           "武侠剧\n/\n古装剧\n/\n悬疑… 3454万 38,7… 3,593 9.2   2015-9-…
 4 明若晓溪       "青春剧\n/\n言情剧\n/\n偶像… 1.57亿 518,… 72,5… 8.8   2015-9-…
 5 多情江山       "言情剧\n/\n古装剧\n/\n宫廷… 1126万 22,5… 6,955 7.6   2015-9-…
 6 我是机器人     "偶像剧\n\n/\n喜剧"          1660万 37,9… 3,605 9.1   2015-9-…
 7 琅琊榜         "历史剧\n/\n古装剧\n/\n偶像… 1.29亿 401,… 15,8… 9.6   2015/9/…
 8 伪装者         "谍战剧\n/\n悬疑剧"          7.36亿 996,… 102,… 9.1   2015-9-…
 9 花千骨未删减版 "言情剧\n/\n古装剧\n/\n偶像… 3.91亿 256,… 84,7… 7.5   2015-9-…
10 刺蝶           "军旅剧\n\n/\n谍战剧\n\n/\n… 8298万 43,7… 17,3… 7.2   2015-9-…
# ℹ 4,256 more rows
…
ℹ Use `spec()` to retrieve the full column specification for this data.
ℹ Specify the column types or set `show_col_types = FALSE` to quiet this message.

3.2 探索性数据分析（EDA）

3.2.1 数据预览

print(data_game)

# A tibble: 1,141 × 12
   游戏名称   评分 类别  语言  热度  最后更新时间 游戏版本 资费  开发商 支持系统
   <chr>     <dbl> <chr> <chr> <chr> <date>       <chr>    <chr> <chr>  <chr>   
 1 捕鱼达人    7.6 益智… 中文  95℃   2015-07-29   1.9.0    道具… 触控…  2.3以上 
 2 NBA2K14     7.5 体育… 中文  94℃   2014-05-27   1.3      完全… 2K Ga… 4.0以上 
 3 愤怒的小…   5.9 益智… 中文  93℃   2016-09-29   6.0.3    道具… 拓维…  2.3以上 
 4 三国志无…   5.1 动作… 中文  90℃   2012-07-31   1.3      完全… PlayB… 2.2以上 
 5 地铁跑酷…   8.4 益智… 中文  89℃   2016-09-23   2.54.0   道具… 乐逗   4.0以上 
 6 火箭飞人    8.2 动作… 英文  89℃   2016-08-30   1.9.10   完全… Halfb… 4.0.3以…
 7 暴力摩托…   5.1 动作… 英文  89℃   2015-02-17   1.11     完全… Adren… 2.0.1以…
 8 愤怒的小…   9.5 益智… 英文  87℃   2015-07-06   2.2.1    完全… Rovio  2.3以上 
 9 NBA 2K17…   8   体育… 英文  85℃   2016-09-30   0.0.21   完全… 2K Ga… 4.3以上 
10 天天酷跑    6.9 益智… 中文  84℃   2016-07-22   1.0.35.0 完全… 腾讯   2.2以上 
# ℹ 1,131 more rows
# ℹ 2 more variables: 评论数 <dbl>, 喜欢数 <dbl>
…
3.3 特征工程

查看当前数据格式

print(data_game1)

# A tibble: 1,140 × 16
   游戏名称  评分 类别  热度  最后更新时间 游戏版本 资费  开发商 支持系统 评论数
   <chr>    <dbl> <chr> <chr> <date>       <chr>    <chr> <chr>  <chr>     <dbl>
 1 捕鱼达人   7.6 益智… 95℃   2015-07-29   1.9.0    道具… 触控…  2.3以上    6654
 2 NBA2K14    7.5 体育… 94℃   2014-05-27   1.3      完全… 2K Ga… 4.0以上   16190
 3 愤怒的…    5.9 益智… 93℃   2016-09-29   6.0.3    道具… 拓维…  2.3以上    7187
 4 三国志…    5.1 动作… 90℃   2012-07-31   1.3      完全… PlayB… 2.2以上    9372
 5 地铁跑…    8.4 益智… 89℃   2016-09-23   2.54.0   道具… 乐逗   4.0以上    8804
 6 火箭飞人   8.2 动作… 89℃   2016-08-30   1.9.10   完全… Halfb… 4.0.3以…   7371
 7 暴力摩…    5.1 动作… 89℃   2015-02-17   1.11     完全… Adren… 2.0.1以…   4461
 8 愤怒的…    9.5 益智… 87℃   2015-07-06   2.2.1    完全… Rovio  2.3以上    5238
 9 NBA 2K1…   8   体育… 85℃   2016-09-30   0.0.21   完全… 2K Ga… 4.3以上    2411
10 天天酷跑   6.9 益智… 84℃   2016-07-22   1.0.35.0 完全… 腾讯   2.2以上    8245
# ℹ 1,130 more rows
# ℹ 6 more variables: 喜欢数 <dbl>, 中文 <dbl>, 英文 <dbl>, 韩文 <dbl>,
#   日文 <dbl>, 其他 <dbl>
…
# 4. 将特定列转化为因子类型
factor_columns <- c('中文', '英文', '韩文', '日文', '其他', '支持系统', '开发商', '资费', '类别')

data_game2 <- data_game2 %>%
  mutate(across(all_of(factor_columns), as.factor))

# 查看结果
print(data_game2)

# A tibble: 1,140 × 18
   游戏版本1 最后更新年 最后更新月 最后更新日 游戏名称    评分 类别   热度 资费 
       <int>      <int>      <int>      <int> <chr>      <dbl> <fct> <dbl> <fct>
 1         1       2015          7         29 捕鱼达人     7.6 益智…    95 道具…
 2         1       2014          5         27 NBA2K14      7.5 体育…    94 完全…
 3         6       2016          9         29 愤怒的小…    5.9 益智…    93 道具…
 4         1       2012          7         31 三国志无…    5.1 动作…    90 完全…
 5         2       2016          9         23 地铁跑酷-…   8.4 益智…    89 道具…
 6         1       2016          8         30 火箭飞人     8.2 动作…    89 完全…
 7         1       2015          2         17 暴力摩托…    5.1 动作…    89 完全…
 8         2       2015          7          6 愤怒的小…    9.5 益智…    87 完全…
 9         0       2016          9         30 NBA 2K17…    8   体育…    85 完全…
10         1       2016          7         22 天天酷跑     6.9 益智…    84 完全…
# ℹ 1,130 more rows
# ℹ 9 more variables: 开发商 <fct>, 支持系统 <fct>, 评论数 <dbl>, 喜欢数 <dbl>,
#   中文 <fct>, 英文 <fct>, 韩文 <fct>, 日文 <fct>, 其他 <fct>
…
